{
    "444996": "hcd19",
    "445014": "hcd7",
    "445043": "hcd9",
    "445079": "hcd16",
    "445101": "hcd20",
    "445131": "hcd2",
    "445155": "hcd10",
    "445170": "hcd4",
    "445175": "hcd11",
    "445178": "hcd8",
    "445190": "hcd21",
    "445193": "hcd23",
    "445197": "hcd3",
    "445206": "hcd5",
    "445222": "hcd1",
    "445223": "hcd13",
    "445224": "hcd22",
    "445225": "hcd15",
    "445230": "hcd17",
    "445282": "hcd6",
    "445285": "hcd14",
    "445293": "hcd12"
}