{
    "dataset": {
    "version": "2.0",
    "class": "dataset",
    "label": "COVID-19 cases in the infectious diseases registry",
    "dimension": {
    "id": [
    "measure","ttr10yage"
    ],
    "size": [
    1,10
    ],
    "measure" : {
    "category": {
    "index": {
    "492118": 0
    },
    "label": {
    "492118": "Number of deaths"
    }
    }
    },
    "ttr10yage" : {
    "category": {
    "index": {
    "443857": 0,
    "443832": 1,
    "444254": 2,
    "444208": 3,
    "444333": 4,
    "444438": 5,
    "443749": 6,
    "443912": 7,
    "443693": 8,
    "444309": 9
    },
    "label": {
    "443857": "00-10",
    "443832": "10-20",
    "444254": "20-30",
    "444208": "30-40",
    "444333": "40-50",
    "444438": "50-60",
    "443749": "60-70",
    "443912": "70-80",
    "443693": "80-",
    "444309": "All ages"
    }
    }
    }
    },
    "value": {
    "0": "..",
    "1": "..",
    "2": "..",
    "3": "..",
    "4": "..",
    "5": "17",
    "6": "33",
    "7": "94",
    "8": "325",
    "9": "477"
    }
    }
    }
    