{
"dataset": {
"version": "2.0",
"class": "dataset",
"label": "Tartuntatautirekisterin COVID-19-tapaukset",
"dimension": {
"id": [
"dateweek2020010120201231","hcdmunicipality2020"
],
"size": [
54,22
],
"dateweek2020010120201231" : {
"category": {
"index": {
"443811": 0,
"444248": 1,
"444271": 2,
"444094": 3,
"443839": 4,
"444236": 5,
"443659": 6,
"443848": 7,
"444054": 8,
"444206": 9,
"443647": 10,
"444316": 11,
"444561": 12,
"444482": 13,
"444314": 14,
"443977": 15,
"444040": 16,
"444226": 17,
"443975": 18,
"444384": 19,
"444163": 20,
"444052": 21,
"443897": 22,
"443842": 23,
"443872": 24,
"443744": 25,
"443807": 26,
"443687": 27,
"444158": 28,
"443953": 29,
"443920": 30,
"443761": 31,
"444412": 32,
"444448": 33,
"444116": 34,
"444453": 35,
"443888": 36,
"443925": 37,
"443660": 38,
"444492": 39,
"444640": 40,
"444490": 41,
"444101": 42,
"443718": 43,
"444292": 44,
"444366": 45,
"444588": 46,
"444585": 47,
"444189": 48,
"443892": 49,
"444109": 50,
"444565": 51,
"444207": 52,
"443686": 53
},
"label": {
"443811": "Vuosi 2020 Viikko 01",
"444248": "Vuosi 2020 Viikko 02",
"444271": "Vuosi 2020 Viikko 03",
"444094": "Vuosi 2020 Viikko 04",
"443839": "Vuosi 2020 Viikko 05",
"444236": "Vuosi 2020 Viikko 06",
"443659": "Vuosi 2020 Viikko 07",
"443848": "Vuosi 2020 Viikko 08",
"444054": "Vuosi 2020 Viikko 09",
"444206": "Vuosi 2020 Viikko 10",
"443647": "Vuosi 2020 Viikko 11",
"444316": "Vuosi 2020 Viikko 12",
"444561": "Vuosi 2020 Viikko 13",
"444482": "Vuosi 2020 Viikko 14",
"444314": "Vuosi 2020 Viikko 15",
"443977": "Vuosi 2020 Viikko 16",
"444040": "Vuosi 2020 Viikko 17",
"444226": "Vuosi 2020 Viikko 18",
"443975": "Vuosi 2020 Viikko 19",
"444384": "Vuosi 2020 Viikko 20",
"444163": "Vuosi 2020 Viikko 21",
"444052": "Vuosi 2020 Viikko 22",
"443897": "Vuosi 2020 Viikko 23",
"443842": "Vuosi 2020 Viikko 24",
"443872": "Vuosi 2020 Viikko 25",
"443744": "Vuosi 2020 Viikko 26",
"443807": "Vuosi 2020 Viikko 27",
"443687": "Vuosi 2020 Viikko 28",
"444158": "Vuosi 2020 Viikko 29",
"443953": "Vuosi 2020 Viikko 30",
"443920": "Vuosi 2020 Viikko 31",
"443761": "Vuosi 2020 Viikko 32",
"444412": "Vuosi 2020 Viikko 33",
"444448": "Vuosi 2020 Viikko 34",
"444116": "Vuosi 2020 Viikko 35",
"444453": "Vuosi 2020 Viikko 36",
"443888": "Vuosi 2020 Viikko 37",
"443925": "Vuosi 2020 Viikko 38",
"443660": "Vuosi 2020 Viikko 39",
"444492": "Vuosi 2020 Viikko 40",
"444640": "Vuosi 2020 Viikko 41",
"444490": "Vuosi 2020 Viikko 42",
"444101": "Vuosi 2020 Viikko 43",
"443718": "Vuosi 2020 Viikko 44",
"444292": "Vuosi 2020 Viikko 45",
"444366": "Vuosi 2020 Viikko 46",
"444588": "Vuosi 2020 Viikko 47",
"444585": "Vuosi 2020 Viikko 48",
"444189": "Vuosi 2020 Viikko 49",
"443892": "Vuosi 2020 Viikko 50",
"444109": "Vuosi 2020 Viikko 51",
"444565": "Vuosi 2020 Viikko 52",
"444207": "Vuosi 2020 Viikko 53",
"443686": "Aika"
}
}
},
"hcdmunicipality2020" : {
"category": {
"index": {
"445131": 0,
"445197": 1,
"445170": 2,
"445206": 3,
"445282": 4,
"445014": 5,
"445178": 6,
"445043": 7,
"445155": 8,
"445175": 9,
"445293": 10,
"445223": 11,
"445285": 12,
"445225": 13,
"445079": 14,
"445230": 15,
"444996": 16,
"445101": 17,
"445190": 18,
"445224": 19,
"445193": 20,
"445222": 21
},
"label": {
"445131": "Ahvenanmaa",
"445197": "Varsinais-Suomen SHP",
"445170": "Satakunnan SHP",
"445206": "Kanta-Hämeen SHP",
"445282": "Pirkanmaan SHP",
"445014": "Päijät-Hämeen SHP",
"445178": "Kymenlaakson SHP",
"445043": "Etelä-Karjalan SHP",
"445155": "Etelä-Savon SHP",
"445175": "Itä-Savon SHP",
"445293": "Pohjois-Karjalan SHP",
"445223": "Pohjois-Savon SHP",
"445285": "Keski-Suomen SHP",
"445225": "Etelä-Pohjanmaan SHP",
"445079": "Vaasan SHP",
"445230": "Keski-Pohjanmaan SHP",
"444996": "Pohjois-Pohjanmaan SHP",
"445101": "Kainuun SHP",
"445190": "Länsi-Pohjan SHP",
"445224": "Lapin SHP",
"445193": "Helsingin ja Uudenmaan SHP",
"445222": "Kaikki Alueet"
}
}
}
},
"value": {
"88": "0",
"89": "0",
"90": "0",
"91": "0",
"92": "0",
"93": "0",
"94": "0",
"95": "0",
"96": "0",
"97": "0",
"98": "0",
"99": "0",
"100": "0",
"101": "0",
"102": "0",
"103": "0",
"104": "0",
"105": "0",
"106": "0",
"107": "0",
"108": "1",
"109": "1",
"110": "0",
"111": "0",
"112": "0",
"113": "0",
"114": "0",
"115": "0",
"116": "0",
"117": "0",
"118": "0",
"119": "0",
"120": "0",
"121": "0",
"122": "0",
"123": "0",
"124": "0",
"125": "0",
"126": "0",
"127": "0",
"128": "0",
"129": "0",
"130": "0",
"131": "0",
"132": "0",
"133": "0",
"134": "0",
"135": "0",
"136": "0",
"137": "0",
"138": "0",
"139": "0",
"140": "0",
"141": "0",
"142": "0",
"143": "0",
"144": "0",
"145": "0",
"146": "0",
"147": "0",
"148": "0",
"149": "0",
"150": "0",
"151": "0",
"152": "1",
"153": "1",
"154": "0",
"155": "0",
"156": "0",
"157": "0",
"158": "0",
"159": "0",
"160": "0",
"161": "0",
"162": "0",
"163": "0",
"164": "0",
"165": "0",
"166": "0",
"167": "0",
"168": "0",
"169": "0",
"170": "0",
"171": "0",
"172": "0",
"173": "0",
"174": "1",
"175": "1",
"176": "0",
"177": "0",
"178": "0",
"179": "0",
"180": "0",
"181": "0",
"182": "0",
"183": "0",
"184": "0",
"185": "0",
"186": "0",
"187": "0",
"188": "0",
"189": "0",
"190": "0",
"191": "1",
"192": "0",
"193": "0",
"194": "0",
"195": "0",
"196": "6",
"197": "7",
"198": "0",
"199": "1",
"200": "0",
"201": "3",
"202": "7",
"203": "0",
"204": "0",
"205": "2",
"206": "0",
"207": "0",
"208": "1",
"209": "3",
"210": "1",
"211": "0",
"212": "0",
"213": "0",
"214": "1",
"215": "0",
"216": "0",
"217": "0",
"218": "16",
"219": "35",
"220": "0",
"221": "17",
"222": "10",
"223": "10",
"224": "21",
"225": "2",
"226": "1",
"227": "1",
"228": "5",
"229": "0",
"230": "2",
"231": "1",
"232": "12",
"233": "5",
"234": "3",
"235": "2",
"236": "28",
"237": "0",
"238": "0",
"239": "2",
"240": "196",
"241": "318",
"242": "4",
"243": "20",
"244": "7",
"245": "6",
"246": "28",
"247": "5",
"248": "6",
"249": "3",
"250": "5",
"251": "1",
"252": "4",
"253": "9",
"254": "15",
"255": "1",
"256": "13",
"257": "1",
"258": "13",
"259": "4",
"260": "3",
"261": "1",
"262": "392",
"263": "541",
"264": "3",
"265": "32",
"266": "8",
"267": "9",
"268": "60",
"269": "25",
"270": "7",
"271": "3",
"272": "15",
"273": "1",
"274": "5",
"275": "26",
"276": "30",
"277": "7",
"278": "7",
"279": "1",
"280": "21",
"281": "11",
"282": "3",
"283": "13",
"284": "355",
"285": "642",
"286": "1",
"287": "50",
"288": "9",
"289": "22",
"290": "46",
"291": "14",
"292": "11",
"293": "2",
"294": "7",
"295": "7",
"296": "2",
"297": "37",
"298": "34",
"299": "13",
"300": "9",
"301": "4",
"302": "25",
"303": "19",
"304": "17",
"305": "23",
"306": "612",
"307": "964",
"308": "2",
"309": "59",
"310": "8",
"311": "14",
"312": "27",
"313": "12",
"314": "5",
"315": "3",
"316": "9",
"317": "0",
"318": "6",
"319": "34",
"320": "17",
"321": "7",
"322": "9",
"323": "5",
"324": "16",
"325": "10",
"326": "31",
"327": "21",
"328": "635",
"329": "930",
"330": "0",
"331": "52",
"332": "7",
"333": "6",
"334": "11",
"335": "9",
"336": "2",
"337": "0",
"338": "3",
"339": "1",
"340": "4",
"341": "12",
"342": "9",
"343": "4",
"344": "7",
"345": "0",
"346": "8",
"347": "4",
"348": "30",
"349": "7",
"350": "613",
"351": "789",
"352": "1",
"353": "25",
"354": "2",
"355": "12",
"356": "14",
"357": "9",
"358": "3",
"359": "0",
"360": "1",
"361": "0",
"362": "1",
"363": "1",
"364": "9",
"365": "0",
"366": "2",
"367": "0",
"368": "10",
"369": "11",
"370": "24",
"371": "0",
"372": "612",
"373": "737",
"374": "0",
"375": "25",
"376": "2",
"377": "8",
"378": "20",
"379": "2",
"380": "3",
"381": "0",
"382": "0",
"383": "0",
"384": "0",
"385": "4",
"386": "1",
"387": "0",
"388": "3",
"389": "0",
"390": "5",
"391": "4",
"392": "15",
"393": "3",
"394": "525",
"395": "620",
"396": "0",
"397": "25",
"398": "0",
"399": "15",
"400": "12",
"401": "15",
"402": "3",
"403": "4",
"404": "2",
"405": "0",
"406": "0",
"407": "6",
"408": "3",
"409": "6",
"410": "1",
"411": "6",
"412": "2",
"413": "1",
"414": "14",
"415": "1",
"416": "500",
"417": "616",
"418": "0",
"419": "14",
"420": "0",
"421": "4",
"422": "7",
"423": "13",
"424": "2",
"425": "0",
"426": "3",
"427": "0",
"428": "0",
"429": "4",
"430": "0",
"431": "2",
"432": "1",
"433": "0",
"434": "2",
"435": "1",
"436": "6",
"437": "1",
"438": "340",
"439": "400",
"440": "1",
"441": "19",
"442": "0",
"443": "2",
"444": "2",
"445": "1",
"446": "0",
"447": "2",
"448": "3",
"449": "3",
"450": "0",
"451": "0",
"452": "1",
"453": "1",
"454": "0",
"455": "0",
"456": "1",
"457": "0",
"458": "1",
"459": "0",
"460": "182",
"461": "219",
"462": "1",
"463": "8",
"464": "0",
"465": "0",
"466": "5",
"467": "2",
"468": "1",
"469": "4",
"470": "0",
"471": "0",
"472": "0",
"473": "1",
"474": "2",
"475": "0",
"476": "1",
"477": "3",
"478": "1",
"479": "0",
"480": "3",
"481": "0",
"482": "131",
"483": "163",
"484": "3",
"485": "3",
"486": "0",
"487": "1",
"488": "1",
"489": "1",
"490": "1",
"491": "0",
"492": "0",
"493": "0",
"494": "0",
"495": "0",
"496": "1",
"497": "0",
"498": "0",
"499": "5",
"500": "0",
"501": "0",
"502": "0",
"503": "1",
"504": "82",
"505": "99",
"506": "2",
"507": "4",
"508": "3",
"509": "1",
"510": "1",
"511": "0",
"512": "1",
"513": "0",
"514": "0",
"515": "0",
"516": "0",
"517": "0",
"518": "0",
"519": "0",
"520": "1",
"521": "0",
"522": "1",
"523": "0",
"524": "0",
"525": "0",
"526": "40",
"527": "54",
"528": "0",
"529": "1",
"530": "3",
"531": "1",
"532": "0",
"533": "0",
"534": "2",
"535": "0",
"536": "0",
"537": "0",
"538": "3",
"539": "0",
"540": "0",
"541": "0",
"542": "0",
"543": "0",
"544": "1",
"545": "0",
"546": "1",
"547": "0",
"548": "37",
"549": "49",
"550": "1",
"551": "10",
"552": "1",
"553": "0",
"554": "0",
"555": "0",
"556": "1",
"557": "0",
"558": "0",
"559": "0",
"560": "0",
"561": "0",
"562": "0",
"563": "0",
"564": "0",
"565": "0",
"566": "1",
"567": "0",
"568": "2",
"569": "0",
"570": "36",
"571": "52",
"572": "0",
"573": "4",
"574": "0",
"575": "1",
"576": "0",
"577": "1",
"578": "2",
"579": "0",
"580": "0",
"581": "0",
"582": "0",
"583": "0",
"584": "1",
"585": "0",
"586": "0",
"587": "0",
"588": "0",
"589": "0",
"590": "0",
"591": "2",
"592": "33",
"593": "44",
"594": "0",
"595": "4",
"596": "2",
"597": "0",
"598": "1",
"599": "9",
"600": "0",
"601": "0",
"602": "0",
"603": "0",
"604": "0",
"605": "0",
"606": "1",
"607": "0",
"608": "1",
"609": "0",
"610": "6",
"611": "1",
"612": "0",
"613": "2",
"614": "10",
"615": "37",
"616": "0",
"617": "7",
"618": "3",
"619": "0",
"620": "0",
"621": "1",
"622": "0",
"623": "0",
"624": "0",
"625": "0",
"626": "1",
"627": "0",
"628": "3",
"629": "1",
"630": "0",
"631": "0",
"632": "1",
"633": "0",
"634": "0",
"635": "0",
"636": "27",
"637": "44",
"638": "1",
"639": "9",
"640": "4",
"641": "0",
"642": "0",
"643": "0",
"644": "4",
"645": "0",
"646": "0",
"647": "0",
"648": "0",
"649": "0",
"650": "0",
"651": "1",
"652": "0",
"653": "0",
"654": "3",
"655": "0",
"656": "0",
"657": "0",
"658": "34",
"659": "56",
"660": "0",
"661": "8",
"662": "10",
"663": "2",
"664": "2",
"665": "0",
"666": "1",
"667": "0",
"668": "1",
"669": "0",
"670": "0",
"671": "0",
"672": "2",
"673": "1",
"674": "1",
"675": "0",
"676": "0",
"677": "0",
"678": "0",
"679": "1",
"680": "55",
"681": "84",
"682": "0",
"683": "22",
"684": "3",
"685": "1",
"686": "5",
"687": "2",
"688": "1",
"689": "0",
"690": "1",
"691": "0",
"692": "0",
"693": "1",
"694": "3",
"695": "0",
"696": "3",
"697": "0",
"698": "6",
"699": "1",
"700": "1",
"701": "1",
"702": "116",
"703": "167",
"704": "0",
"705": "19",
"706": "3",
"707": "1",
"708": "3",
"709": "4",
"710": "1",
"711": "2",
"712": "0",
"713": "0",
"714": "0",
"715": "0",
"716": "6",
"717": "1",
"718": "5",
"719": "0",
"720": "3",
"721": "0",
"722": "1",
"723": "2",
"724": "124",
"725": "175",
"726": "1",
"727": "18",
"728": "0",
"729": "4",
"730": "6",
"731": "1",
"732": "2",
"733": "1",
"734": "1",
"735": "1",
"736": "0",
"737": "4",
"738": "12",
"739": "7",
"740": "3",
"741": "0",
"742": "6",
"743": "0",
"744": "0",
"745": "6",
"746": "116",
"747": "189",
"748": "0",
"749": "20",
"750": "0",
"751": "0",
"752": "5",
"753": "1",
"754": "1",
"755": "2",
"756": "0",
"757": "0",
"758": "1",
"759": "4",
"760": "12",
"761": "1",
"762": "0",
"763": "0",
"764": "6",
"765": "13",
"766": "0",
"767": "1",
"768": "87",
"769": "154",
"770": "0",
"771": "7",
"772": "2",
"773": "3",
"774": "23",
"775": "22",
"776": "0",
"777": "0",
"778": "0",
"779": "0",
"780": "3",
"781": "0",
"782": "31",
"783": "3",
"784": "1",
"785": "0",
"786": "12",
"787": "8",
"788": "0",
"789": "0",
"790": "120",
"791": "235",
"792": "0",
"793": "23",
"794": "1",
"795": "9",
"796": "28",
"797": "44",
"798": "11",
"799": "0",
"800": "33",
"801": "0",
"802": "1",
"803": "2",
"804": "46",
"805": "2",
"806": "2",
"807": "6",
"808": "7",
"809": "2",
"810": "0",
"811": "3",
"812": "133",
"813": "353",
"814": "0",
"815": "23",
"816": "2",
"817": "21",
"818": "54",
"819": "22",
"820": "8",
"821": "0",
"822": "15",
"823": "1",
"824": "0",
"825": "10",
"826": "66",
"827": "0",
"828": "6",
"829": "3",
"830": "4",
"831": "0",
"832": "1",
"833": "2",
"834": "228",
"835": "466",
"836": "1",
"837": "21",
"838": "3",
"839": "5",
"840": "49",
"841": "15",
"842": "10",
"843": "10",
"844": "20",
"845": "1",
"846": "27",
"847": "21",
"848": "51",
"849": "8",
"850": "13",
"851": "3",
"852": "10",
"853": "1",
"854": "0",
"855": "4",
"856": "436",
"857": "709",
"858": "0",
"859": "68",
"860": "6",
"861": "29",
"862": "50",
"863": "8",
"864": "8",
"865": "9",
"866": "13",
"867": "4",
"868": "22",
"869": "18",
"870": "29",
"871": "29",
"872": "191",
"873": "8",
"874": "24",
"875": "8",
"876": "5",
"877": "18",
"878": "565",
"879": "1112",
"880": "4",
"881": "84",
"882": "8",
"883": "32",
"884": "82",
"885": "7",
"886": "3",
"887": "10",
"888": "9",
"889": "1",
"890": "17",
"891": "7",
"892": "90",
"893": "27",
"894": "428",
"895": "14",
"896": "20",
"897": "0",
"898": "9",
"899": "14",
"900": "753",
"901": "1619",
"902": "0",
"903": "76",
"904": "8",
"905": "23",
"906": "80",
"907": "17",
"908": "18",
"909": "6",
"910": "7",
"911": "1",
"912": "11",
"913": "10",
"914": "89",
"915": "11",
"916": "152",
"917": "6",
"918": "23",
"919": "4",
"920": "4",
"921": "9",
"922": "704",
"923": "1259",
"924": "8",
"925": "67",
"926": "8",
"927": "12",
"928": "20",
"929": "2",
"930": "39",
"931": "7",
"932": "1",
"933": "1",
"934": "2",
"935": "40",
"936": "23",
"937": "5",
"938": "44",
"939": "3",
"940": "72",
"941": "1",
"942": "6",
"943": "13",
"944": "533",
"945": "907",
"1166": "34",
"1167": "845",
"1168": "123",
"1169": "257",
"1170": "670",
"1171": "266",
"1172": "158",
"1173": "71",
"1174": "154",
"1175": "23",
"1176": "113",
"1177": "255",
"1178": "600",
"1179": "143",
"1180": "907",
"1181": "71",
"1182": "339",
"1183": "104",
"1184": "177",
"1185": "151",
"1186": "9387",
"1187": "14848"
}
}
}