{
  "dataset": {
    "version": "2.0",
    "class": "dataset",
    "label": "COVID-19 cases in the infectious diseases registry",
    "dimension": {
      "id": [
        "dateweek2020010120201231",
        "measure"
      ],
      "size": [
        54,
        1
      ],
      "dateweek2020010120201231": {
        "category": {
          "index": {
            "443811": 0,
            "444248": 1,
            "444271": 2,
            "444094": 3,
            "443839": 4,
            "444236": 5,
            "443659": 6,
            "443848": 7,
            "444054": 8,
            "444206": 9,
            "443647": 10,
            "444316": 11,
            "444561": 12,
            "444482": 13,
            "444314": 14,
            "443977": 15,
            "444040": 16,
            "444226": 17,
            "443975": 18,
            "444384": 19,
            "444163": 20,
            "444052": 21,
            "443897": 22,
            "443842": 23,
            "443872": 24,
            "443744": 25,
            "443807": 26,
            "443687": 27,
            "444158": 28,
            "443953": 29,
            "443920": 30,
            "443761": 31,
            "444412": 32,
            "444448": 33,
            "444116": 34,
            "444453": 35,
            "443888": 36,
            "443925": 37,
            "443660": 38,
            "444492": 39,
            "444640": 40,
            "444490": 41,
            "444101": 42,
            "443718": 43,
            "444292": 44,
            "444366": 45,
            "444588": 46,
            "444585": 47,
            "444189": 48,
            "443892": 49,
            "444109": 50,
            "444565": 51,
            "444207": 52,
            "443686": 53
          },
          "label": {
            "443811": "Year 2020 Week 01",
            "444248": "Year 2020 Week 02",
            "444271": "Year 2020 Week 03",
            "444094": "Year 2020 Week 04",
            "443839": "Year 2020 Week 05",
            "444236": "Year 2020 Week 06",
            "443659": "Year 2020 Week 07",
            "443848": "Year 2020 Week 08",
            "444054": "Year 2020 Week 09",
            "444206": "Year 2020 Week 10",
            "443647": "Year 2020 Week 11",
            "444316": "Year 2020 Week 12",
            "444561": "Year 2020 Week 13",
            "444482": "Year 2020 Week 14",
            "444314": "Year 2020 Week 15",
            "443977": "Year 2020 Week 16",
            "444040": "Year 2020 Week 17",
            "444226": "Year 2020 Week 18",
            "443975": "Year 2020 Week 19",
            "444384": "Year 2020 Week 20",
            "444163": "Year 2020 Week 21",
            "444052": "Year 2020 Week 22",
            "443897": "Year 2020 Week 23",
            "443842": "Year 2020 Week 24",
            "443872": "Year 2020 Week 25",
            "443744": "Year 2020 Week 26",
            "443807": "Year 2020 Week 27",
            "443687": "Year 2020 Week 28",
            "444158": "Year 2020 Week 29",
            "443953": "Year 2020 Week 30",
            "443920": "Year 2020 Week 31",
            "443761": "Year 2020 Week 32",
            "444412": "Year 2020 Week 33",
            "444448": "Year 2020 Week 34",
            "444116": "Year 2020 Week 35",
            "444453": "Year 2020 Week 36",
            "443888": "Year 2020 Week 37",
            "443925": "Year 2020 Week 38",
            "443660": "Year 2020 Week 39",
            "444492": "Year 2020 Week 40",
            "444640": "Year 2020 Week 41",
            "444490": "Year 2020 Week 42",
            "444101": "Year 2020 Week 43",
            "443718": "Year 2020 Week 44",
            "444292": "Year 2020 Week 45",
            "444366": "Year 2020 Week 46",
            "444588": "Year 2020 Week 47",
            "444585": "Year 2020 Week 48",
            "444189": "Year 2020 Week 49",
            "443892": "Year 2020 Week 50",
            "444109": "Year 2020 Week 51",
            "444565": "Year 2020 Week 52",
            "444207": "Year 2020 Week 53",
            "443686": "Time"
          }
        }
      },
      "measure": {
        "category": {
          "index": {
            "445344": 0
          },
          "label": {
            "445344": "Population"
          }
        }
      }
    },
    "value": {
      "4": "5542092",
      "5": "5542337",
      "6": "5542757",
      "7": "5542952",
      "8": "5543233",
      "9": "5543425",
      "10": "5543716",
      "11": "5544129",
      "12": "5544293",
      "13": "5544560",
      "14": "5544755",
      "15": "5544951",
      "16": "5544896",
      "17": "5544892",
      "18": "5545055",
      "19": "5545016",
      "20": "5545012",
      "21": "5545272",
      "22": "5535705",
      "23": "5535975",
      "24": "5536055",
      "25": "5536298",
      "26": "5536495",
      "27": "5536712",
      "28": "5536938",
      "29": "5537346",
      "30": "5537830",
      "31": "5538439",
      "32": "5538914",
      "33": "5539325",
      "34": "5539505",
      "35": "5539738",
      "36": "5540132",
      "37": "5540236",
      "38": "5540624",
      "39": "5540950",
      "40": "5541180",
      "41": "5541407",
      "53": "5541407"
    }
  }
}